Place,Name,State,WeightClassKg,BodyweightKg,Age,Best3SquatKg,Best3BenchKg,Best3DeadliftKg,TotalKg,Sex,Division,Equipment,Squat4Kg,Deadlift4Kg,Event
1,Haley Bobadilla,AZ,56,52.8,21,67.5,50,102.5,220,F,Junior 20-23,Raw,,,SBD
1,Alyssa Sullivan,AZ,67.5,64.7,19,105,52.5,120,277.5,F,Junior 18-19,Raw,,,SBD
1,Michelle Mullennix,AZ,67.5,66.7,21,120,77.5,160,357.5,F,Junior 20-23,Raw,,,SBD
1,Bianca Luedeker,AZ,52,50.9,32,90,65,130,285,F,Open,Raw,,,SBD
1,Haley Bobadilla,AZ,56,52.8,21,67.5,50,102.5,220,F,Open,Raw,,,SBD
1,Vanessa Nomura,AZ,60,59.7,27,135,70,145,350,F,Open,Raw,,,SBD
2,Bobbie Schmeltzer,AZ,60,59.4,31,105,72.5,137.5,315,F,Open,Raw,,,SBD
3,Tiffany Dong,CA,60,58,26,115,47.5,132.5,295,F,Open,Raw,,,SBD
1,Tina Truong,CA,67.5,66.4,28,140,65,157.5,362.5,F,Open,Raw,,,SBD
2,Ashley Gleckler,AZ,67.5,67,28,127.5,57.5,157.5,342.5,F,Open,Raw,,,SBD
1,Mary Wright,AZ,90+,124.1,31,105,52.5,115,272.5,F,Open,Raw,,,SBD
1,Rocky Luedeker,AZ,44,41.2,60,42.5,35,70,147.5,F,Master 60-64,Raw,55.5,75.5,SBD
1,Devin Coleman,AZ,67.5,67.1,19,142.5,115,182.5,440,M,Junior 18-19,Raw,,,SBD
2,Chandler Adams,CA,67.5,64.5,18,137.5,100,182.5,420,M,Junior 18-19,Raw,,,SBD
1,Gavino Broguez,AZ,82.5,81.2,20,177.5,110,212.5,500,M,Junior 20-23,Raw,,,SBD
1,Roman Stephan,AZ,90,87.3,19,192.5,117.5,202.5,512.5,M,Junior 18-19,Raw,,,SBD
1,Fernando Dominguez,AZ,90,88.7,21,212.5,102.5,187.5,502.5,M,Junior 20-23,Raw,,,SBD
1,Jarod Flitcraft,AZ,100,91.8,16,182.5,97.5,160,440,M,Junior 16-17,Raw,,,SBD
1,Carlos Avalos,TX,67.5,66.4,24,195,127.5,247.5,570,M,Open,Raw,,,SBD
2,Dustin Craigo,IN,67.5,66.1,33,190,100,217.5,507.5,M,Open,Raw,,,SBD
3,Joshua Pinon',AZ,67.5,66.2,29,147.5,100,182.5,430,M,Open,Raw,,,SBD
1,Bryan Alvarado,AZ,82.5,81.5,28,227.5,152.5,220,600,M,Open,Raw,,,SBD
2,Thomas Sheets,AZ,82.5,80.9,24,202.5,142.5,247,592,M,Open,Raw,,,SBD
3,Chris Powell,AZ,82.5,81.2,37,190,160,240,590,M,Open,Raw,,,SBD
4,Randy Rodriguez,AZ,82.5,81.5,28,160,120,220,500,M,Open,Raw,,,SBD
5,Michael Johnson,AZ,82.5,80.9,28,167.5,107.5,182.5,457.5,M,Open,Raw,,,SBD
1,Matt Ommen,AZ,90,89.7,26,227.5,197.5,272.5,697.5,M,Open,Raw,,,SBD
2,Richard Harless,AZ,90,89,29,247.5,160,272.5,680,M,Open,Raw,,,SBD
1,David Labrie,AZ,100,99.7,30,255,177.5,330,762.5,M,Open,Raw,,,SBD
2,Cole Townsend,AZ,100,93.1,25,202.5,115,275,592.5,M,Open,Raw,,,SBD
3,Ivan Sandoval,AZ,100,98.8,30,177.5,135,242.5,555,M,Open,Raw,,,SBD
1,James Housman,AZ,125,122.1,24,250,162.5,287.5,700,M,Open,Raw,,,SBD
2,Lamar Lewis,AZ,125,115.2,34,215,165,295,675,M,Open,Raw,,,SBD
1,Blaine Daniels,AZ,140,130.5,29,265,215,320,800,M,Open,Raw,,,SBD
1,William Lamond,AZ,75,72.9,36,182.5,120,225,527.5,M,Submaster 35-39,Raw,,,SBD
1,Chris Powell,AZ,82.5,81.2,37,190,160,240,590,M,Submaster 35-39,Raw,,,SBD
1,Lee Luedeker,AZ,67.5,67.4,65,112.5,95,175,382.5,M,Master 65-69,Raw,,,SBD
1,Chris Rapp,AZ,82.5,80.9,43,172.5,117.5,215,505,M,Master 40-44,Raw,,,SBD
1,David Robinson,CO,82.5,81.7,74,77.5,86,106,269.5,M,Master 70-74,Raw,,107.5,SBD
DQ,Rob Burson,AZ,90,86.3,50,142.5,-115,165,,M,Master 50-54,Raw,,,SBD
1,JP Sullivan,AZ,100,98.8,57,182.5,145,212.5,540,M,Master 55-59,Raw,,,SBD
1,Danielle Pressler,AZ,82.5,81.1,29,140,82.5,167.5,390,F,Open,Wraps,,,SBD
1,Ryan Ruybalid,NM,67.5,67.4,20,172.5,102.5,210,485,M,Junior 20-23,Wraps,,,SBD
1,Irving Dominguez,AZ,82.5,79.9,19,155,100,205,460,M,Junior 18-19,Wraps,,,SBD
1,Chris Tranberth,AZ,100,94.4,23,230,175,227.5,632.5,M,Junior 20-23,Wraps,,,SBD
DQ,Josh Sanderson,AZ,125,122,23,287.5,192.5,-280,,M,Junior 20-23,Wraps,,,SBD
1,Ryan Ruybalid,NM,67.5,67.4,20,172.5,102.5,210,485,M,Open,Wraps,,,SBD
1,Luther Laycoax,AZ,75,74.1,35,167.5,115,210,492.5,M,Open,Wraps,,,SBD
1,Daniel Sawaya,AZ,90,88.9,40,250,150,240,640,M,Open,Wraps,,,SBD
1,Chris Tranberth,AZ,100,94.4,23,230,175,227.5,632.5,M,Open,Wraps,,,SBD
1,Ismael Hernandez,TX,110,107,36,290,197.5,290,777.5,M,Open,Wraps,,,SBD
2,Jacob Dameron,AZ,110,106.2,33,247.5,177.5,277.5,702.5,M,Open,Wraps,,,SBD
3,Rube Rodriguez,TX,110,109.2,41,240,177.5,250,667.5,M,Open,Wraps,,,SBD
DQ,Josh Sanderson,AZ,125,122,23,287.5,192.5,-280,,M,Open,Wraps,,,SBD
1,Tiberius Catinas,AZ,140,140,26,247.5,160,232.5,640,M,Open,Wraps,,,SBD
1,Luther Laycoax,AZ,75,74.1,35,167.5,115,210,492.5,M,Submaster 35-39,Wraps,,,SBD
1,Ismael Hernandez,TX,110,107,36,290,197.5,290,777.5,M,Submaster 35-39,Wraps,,,SBD
1,Damon McCumber,CA,75,72.1,48,115,95,157.5,367.5,M,Master 45-49,Wraps,,,SBD
1,Daniel Sawaya,AZ,90,88.9,40,250,150,240,640,M,Master 40-44,Wraps,,,SBD
1,Rube Rodriguez,TX,110,109.2,41,240,177.5,250,667.5,M,Master 40-44,Wraps,,,SBD
1,Gene Lawrence,AZ,110,108.4,76,100,97.5,142.5,340,M,Master 75-79,Wraps,,,SBD
1,Matt Foreman,AZ,125,119.1,43,250,85,240,575,M,Master 40-44,Wraps,,,SBD
1,Jacob Gaethje,AZ,100,99,26,295,175,272.5,742.5,M,Open,Single-ply,,,SBD
2,Jon Marshall,AZ,100,99.7,42,272.5,195,250,717.5,M,Open,Single-ply,,,SBD
1,Jon Marshall,AZ,100,99.7,42,272.5,195,250,717.5,M,Master 40-44,Single-ply,,,SBD
1,Gene Lawrence,AZ,110,108.4,76,100,97.5,142.5,340,M,Master 75-79,Single-ply,,,SBD
DQ,Greg Kisil,AZ,140+,163.9,43,-187.5,,,,M,Master 40-44,Multi-ply,,,SBD
1,Malinda Gustafson,AZ,75,74.6,36,,85,,85,F,Open,Raw,,,B
1,Malinda Gustafson,AZ,75,74.6,36,,85,,85,F,Submaster 35-39,Raw,,,B
1,Isaac Dawson,AZ,75,74.8,20,,127.5,,127.5,M,Junior 20-23,Raw,,,B
1,Chris Tranberth,AZ,100,94.4,23,,175,,175,M,Junior 20-23,Raw,,,B
1,Matt Ommen,AZ,90,89.7,26,,197.5,,197.5,M,Open,Raw,,,B
1,Jason Newland,AZ,100,95.8,33,,177.5,,177.5,M,Open,Raw,,,B
2,Chris Tranberth,AZ,100,94.4,23,,175,,175,M,Open,Raw,,,B
1,William McCoy,AZ,125,123.9,35,,175,,175,M,Open,Raw,,,B
1,Ethan Gonzalez,AZ,140+,156,32,,185,,185,M,Open,Raw,,,B
1,William McCoy,AZ,125,123.9,35,,175,,175,M,Submaster 35-39,Raw,,,B
1,David Robinson,CO,82.5,81.7,74,,86,,86,M,Master 70-74,Raw,,,B
1,Gene Lawrence,AZ,110,108.4,76,,97.5,,97.5,M,Master 75-79,Raw,,,B
1,Mark Stanford,AZ,140,126.8,54,,182.5,,182.5,M,Master 50-54,Raw,,,B
1,David Bjornstad,AZ,100,99.9,58,,145,,145,M,Master 55-59,Single-ply,,,B
1,Gene Lawrence,AZ,110,108.4,76,,97.5,,97.5,M,Master 75-79,Single-ply,,,B
DQ,Holly Helton,AZ,56,55,28,,-102.5,,,F,Open,Multi-ply,,,B
1,Jewell McCormick,AZ,60,60,33,,,110,110,F,Open,Raw,,,D
1,Malinda Gustafson,AZ,75,74.6,36,,,182.5,182.5,F,Open,Raw,,,D
1,Mary Wright,AZ,90+,124.1,31,,,115,115,F,Open,Raw,,,D
1,Malinda Gustafson,AZ,75,74.6,36,,,182.5,182.5,F,Submaster 35-39,Raw,,,D
1,Sophia Hussary,AZ,82.5,81.2,38,,,187.5,187.5,F,Submaster 35-39,Raw,,,D
1,Samuel Olguin,AZ,100,98.4,22,,,282.5,282.5,M,Junior 20-23,Raw,,,D
1,William McCoy,AZ,125,123.9,35,,,227.5,227.5,M,Open,Raw,,,D
1,William McCoy,AZ,125,123.9,35,,,227.5,227.5,M,Submaster 35-39,Raw,,,D
1,Albert Carlotti,AZ,82.5,80.1,46,,,228,228,M,Master 45-49,Raw,,,D
1,Gene Lawrence,AZ,110,108.4,76,,,142.5,142.5,M,Master 75-79,Raw,,,D
1,Eric Patterson,AZ,125,117.6,46,,,310,310,M,Master 45-49,Raw,,,D
1,Gene Lawrence,AZ,110,108.4,76,,,142.5,142.5,M,Master 75-79,Single-ply,,,D
