Name,Place,Division,Sex,Equipment,State,WeightClassKg,BodyweightKg,Age,Best3SquatKg,Best3BenchKg,Best3DeadliftKg,TotalKg,Event
Kaitlyn Mickey,1,Junior 13-15,F,Raw,TX,52,49.26,13,37.5,27.5,42.5,107.5,SBD
Valerie Sanchez,1,Junior 20-23,F,Raw,TX,52,48.26,21,92.5,50,127.5,270,SBD
Valerie Sanchez,1,Open,F,Raw,TX,52,48.26,21,92.5,50,127.5,270,SBD
Amparo Barajas,2,Open,F,Raw,TX,52,51.85,32,82.5,57.5,130,270,SBD
Krista Bergeron,1,Open,F,Raw,TX,56,55.7,38,111,62.5,157.5,331,SBD
Sara Russert,2,Open,F,Raw,WA,56,55.79,32,100,67.5,122.5,290,SBD
Danielle Armstrong,1,Open,F,Raw,TX,60,56.52,31,80,60,105,245,SBD
Jessica Pierre'auguste,2,Open,F,Raw,TX,60,59.96,32,87.5,45,87.5,220,SBD
Natalie Wyll,3,Open,F,Raw,TX,60,56.34,32,75,45,90,210,SBD
Crystal Moulton,1,Open,F,Raw,UT,67.5,61.69,34,105,65,122.5,292.5,SBD
Kelley Huff,2,Open,F,Raw,TX,67.5,67.22,25,95,45,110,250,SBD
Shelley Smith,3,Open,F,Raw,TX,67.5,63.5,29,82.5,47.5,110,240,SBD
Katy Davis,DQ,Open,F,Raw,TX,67.5,66.95,24,62.5,,,,SBD
Liz Fuentes,1,Open,F,Raw,TX,75,73.84,28,120,57.5,162.5,340,SBD
Melissa Lopez,1,Open,F,Raw,TX,82.5,78.74,28,125,57.5,140,322.5,SBD
Rosalind Hicks-Bowles,2,Open,F,Raw,TX,82.5,79.29,45,80,52.5,115,247.5,SBD
Shari Davis,1,Open,F,Raw,TX,90,86.36,50,72.5,45,117.5,235,SBD
Krista Bergeron,1,Submaster 35-39,F,Raw,TX,56,55.7,38,111,62.5,157.5,331,SBD
Barbara Rappaport,1,Submaster 35-39,F,Raw,TX,75,70.4,39,67.5,52.5,130,250,SBD
Kaelene Colobella,1,Submaster 35-39,F,Raw,UT,90,86.18,38,105,60,122.5,287.5,SBD
Rebecca Foster,1,Submaster 35-39,F,Raw,TX,90+,99.97,36,110,70,165,345,SBD
Tyra Humphries,2,Submaster 35-39,F,Raw,TX,90+,128,39,87.5,60,92.5,240,SBD
Martha King,1,Master 55-59,F,Raw,TX,56,54.98,56,57.5,30,97.5,185,SBD
Marily Mickey,1,Master 40-44,F,Raw,TX,60,59.96,42,97.5,52.5,125,275,SBD
Aliza Rivera,1,Master 40-44,F,Raw,TX,75,74.84,41,70,45,102.5,217.5,SBD
Rosalind Hicks-Bowles,1,Master 45-49,F,Raw,TX,82.5,79.29,45,80,52.5,115,247.5,SBD
Branden Sanchez,1,Junior 20-23,M,Raw,OK,75,74.48,22,182.5,115,260,557.5,SBD
Brandon Cordero,2,Junior 20-23,M,Raw,TX,75,73.3,21,167.5,115,220,502.5,SBD
Jacob Fowler,1,Junior 18-19,M,Raw,TX,82.5,79.83,19,182.5,117.5,185,485,SBD
Jay Elinzondo,2,Junior 18-19,M,Raw,TX,82.5,76.38,18,142.5,85,185,412.5,SBD
Corbyn Pye,1,Junior 20-23,M,Raw,TX,82.5,81.28,21,192.5,147.5,257.5,597.5,SBD
Kyle Kubasik,1,Junior 20-23,M,Raw,TX,90,89.36,23,210,145,225,580,SBD
Zachary Burkhalter,2,Junior 20-23,M,Raw,TX,90,88.09,20,197.5,132.5,230,560,SBD
Rance Thompson,3,Junior 20-23,M,Raw,TX,90,87.27,23,192.5,140,225,557.5,SBD
Sean Henry,4,Junior 20-23,M,Raw,TX,90,88.81,22,187.5,107.5,240,535,SBD
Travis Capps,1,Junior 20-23,M,Raw,TX,100,99.97,22,207.5,155,237.5,600,SBD
Tyler Vickery,1,Junior 20-23,M,Raw,TX,110,105.78,22,262.5,165,237.5,665,SBD
Irvin Sanchez,DQ,Junior 20-23,M,Raw,TX,125,124.1,21,290,-165,,,SBD
Alex Barajas,DQ,Open,M,Raw,TX,67.5,66.41,37,160,-100,,,SBD
Jesse Campos,1,Open,M,Raw,TX,75,72.94,26,197.5,152.5,210,560,SBD
Cory Wilsey,2,Open,M,Raw,OK,75,74.48,24,192.5,132.5,230,555,SBD
Chris Primeau,3,Open,M,Raw,TX,75,73.57,28,175,125,197.5,497.5,SBD
Andrew O'Hara,4,Open,M,Raw,TX,75,72.85,28,170,85,190,445,SBD
Cory Schneider,1,Open,M,Raw,TX,82.5,80.56,28,235,145,282.5,662.5,SBD
Corbyn Pye,2,Open,M,Raw,TX,82.5,81.28,21,192.5,147.5,257.5,597.5,SBD
Trevor Sellers,3,Open,M,Raw,TX,82.5,77.84,18,202.5,142.5,227.5,572.5,SBD
Tommy Baze,4,Open,M,Raw,TX,82.5,82.19,25,207.5,130,227.5,565,SBD
Matthew Harold,5,Open,M,Raw,TX,82.5,80.1,26,157.5,102.5,182.5,442.5,SBD
Matthew Salmi,6,Open,M,Raw,TX,82.5,79.47,30,145,97.5,185,427.5,SBD
Robert Mouton,1,Open,M,Raw,TX,90,87.45,34,217.5,130,210,557.5,SBD
Sean Henry,2,Open,M,Raw,TX,90,88.81,22,187.5,107.5,240,535,SBD
Jared Slack,3,Open,M,Raw,TX,90,88.45,26,200,110,220,530,SBD
Jason Morris,4,Open,M,Raw,OR,90,88.63,30,165,97.5,205,467.5,SBD
Andrew Gilbert,5,Open,M,Raw,LA,90,85.73,24,147.5,87.5,175,410,SBD
John De La Paz,1,Open,M,Raw,TX,100,99.7,30,227.5,165,237.5,630,SBD
Zack Damon,2,Open,M,Raw,OK,100,97.52,25,190,122.5,215,527.5,SBD
Gary Snider,3,Open,M,Raw,TX,100,96.62,28,110,67.5,160,337.5,SBD
David Troutt,1,Open,M,Raw,TX,110,104.33,29,282.5,172.5,375,830,SBD
Lee Kelley,2,Open,M,Raw,TX,110,108.68,33,272.5,195,260,727.5,SBD
BJ Whitehead,1,Open,M,Raw,TX,125,123.65,37,345,235,327.5,907.5,SBD
Corey Hodnett,2,Open,M,Raw,TX,125,122.47,32,265,195,287.5,747.5,SBD
Jamie Wang,1,Open,M,Raw,TX,140+,140.61,33,210,145,245,600,SBD
David Polisky,1,Submaster 35-39,M,Raw,TX,100,98.97,35,175,112.5,227.5,515,SBD
James Evans,DQ,Submaster 35-39,M,Raw,TX,125,121.74,36,175,-110,,,SBD
James Bono,1,Master 40-44,M,Raw,TX,110,103.6,40,222.5,155,295,672.5,SBD
Tim Searles,1,Master 45-49,M,Raw,TX,110,104.14,45,195,160,252.5,607.5,SBD
Rube Rodriguez,1,Master 40-44,M,Raw,TX,125,115.48,40,212.5,152.5,215,580,SBD
Diane Doan,1,Open,F,Wraps,TX,48,47.99,23,62.5,47.5,87.5,197.5,SBD
Julie Laursen,1,Open,F,Wraps,TX,52,51.17,32,70,42.5,107.5,220,SBD
Jessica Nelian,1,Open,F,Wraps,TX,60,58.69,31,92.5,47.5,120,260,SBD
Chantel Soirez,1,Open,F,Wraps,TX,67.5,67.13,33,92.5,52.5,125,270,SBD
Denise Contreras,2,Open,F,Wraps,TX,67.5,65.41,48,102.5,57.5,107.5,267.5,SBD
Franki Spell,1,Open,F,Wraps,TX,75,74.57,34,110,85,153,348,SBD
Mylene Crouthamel,1,Submaster 35-39,F,Wraps,TX,56,55.16,37,95,57.5,117.5,270,SBD
Angie Nichols,2,Submaster 35-39,F,Wraps,TX,56,55.93,35,82.5,40,97.5,220,SBD
Denise Contreras,1,Master 45-49,F,Wraps,TX,67.5,65.41,48,102.5,57.5,107.5,267.5,SBD
Laura Facundo,1,Master 40-44,F,Wraps,TX,75,72.85,43,82.5,57.5,127.5,267.5,SBD
Zach Reid,DQ,Junior 13-15,M,Wraps,TX,60,58.51,15,130,-75,,,SBD
Ryan Hammons,1,Junior 20-23,M,Wraps,OK,75,74.75,21,192.5,147.5,185,525,SBD
Chance Mitchell,1,Junior 18-19,M,Wraps,TX,82.5,81.47,19,227.5,120,245,592.5,SBD
Josh Nooner,1,Junior 20-23,M,Wraps,OK,82.5,81.65,22,235,155,250,640,SBD
Zac Bledsoe,DQ,Junior 16-17,M,Wraps,OK,90,87.09,17,185,-110,,,SBD
Ryan Mercado,1,Junior 20-23,M,Wraps,TX,100,94.8,21,200,120,230,550,SBD
Randall Taylor,1,Open,M,Wraps,TX,67.5,66.86,30,182.5,120,182.5,485,SBD
Jude Howe,1,Open,M,Wraps,TX,82.5,79.56,44,182.5,92.5,197.5,472.5,SBD
Eric Nayden,1,Open,M,Wraps,TX,90,89.72,29,145,77.5,185,407.5,SBD
Mike Bishop,1,Open,M,Wraps,TN,100,99.61,40,265,175,295,735,SBD
Scott Jones,1,Open,M,Wraps,TX,110,108.41,29,192.5,120,240,552.5,SBD
Jake Burghardt,DQ,Open,M,Wraps,OK,125,124.74,26,205,-167.5,,,SBD
Chad Nichols,1,Submaster 35-39,M,Wraps,TX,100,98.88,39,182.5,142.5,182.5,507.5,SBD
Hal Carlson,1,Submaster 35-39,M,Wraps,TX,125,123.65,38,275,197.5,290,762.5,SBD
Mike Bishop,1,Master 40-44,M,Wraps,TN,100,99.61,40,265,175,295,735,SBD
Darren Turley,1,Master 45-49,M,Wraps,TX,140,137.17,46,272.5,192.5,260,725,SBD
Stacie Wallace,1,Open,F,Single-ply,TX,67.5,62.69,31,135,87.5,150,372.5,SBD
David Muster,1,Open,M,Single-ply,TX,100,98.7,30,320,217.5,280,817.5,SBD
Jordan Lawler,2,Open,M,Single-ply,TX,100,97.07,31,240,182.5,230,652.5,SBD
Chris Ray,DQ,Open,M,Single-ply,ID,100,96.07,40,275,-165,,,SBD
Henry Thomason,DQ,Open,M,Single-ply,TX,140,134.99,35,-462.5,,,,SBD
Bryan Johnson,1,Master 40-44,M,Single-ply,TX,75,74.12,41,217.5,127.5,245,590,SBD
Bill Johnson,DQ,Master 65-69,M,Single-ply,TX,90,89.9,68,-225,,,,SBD
Joe Vann,1,Open,M,Raw,TX,56,54.88,38,,105,,105,B
Eddie Webber,1,Open,M,Raw,TX,75,74.48,33,,173,,173,B
Paul Belin,1,Open,M,Raw,TX,90,87.45,34,,160,,160,B
Neil Omerod,2,Open,M,Raw,TX,90,88.45,24,,152.5,,152.5,B
Mike Wolf,1,Open,M,Raw,AZ,110,105.96,33,,140,,140,B
Charles King,1,Master 50-54,M,Raw,TX,75,73.03,51,,125,,125,B
Tony Mancini,DQ,Master 40-44,M,Raw,TX,90,89.18,43,,-165,,,B
Chinga Moalusi,1,Open,M,Raw,MO,82.5,80.74,27,,,237.5,237.5,D
Warren Fahrenfeld,1,Open,M,Single-ply,NJ,82.5,81.65,47,,,272.5,272.5,D
Warren Fahrenfeld,1,Master 45-49,M,Single-ply,NJ,82.5,81.65,47,,,272.5,272.5,D
Don Zachary,1,Master 55-59,M,Single-ply,TX,100,99.7,58,,,192.5,192.5,D
