Division,WeightClassKg,Place,Name,Team,BodyweightKg,Best3SquatKg,Best3BenchKg,Best3DeadliftKg,TotalKg,Equipment,Event,Sex
Boys,52,1,Noah Hernandez,Lake Worth,49.44,106.59,54.43,113.4,274.42,Single-ply,SBD,M
Boys,52,2,Jose Gonzalez #2,Hillsboro,48.17,61.23,49.9,86.18,197.31,Single-ply,SBD,M
Boys,52,DQ,Javen Lopez,Lake Worth,49.62,,,,,Single-ply,SBD,M
Boys,56,1,Brady Macaulay,Everman,55.25,136.08,79.38,170.1,385.55,Single-ply,SBD,M
Boys,56,DQ,Martin Palomino,Lake Worth,55.79,,,,,Single-ply,SBD,M
Boys,60,1,Rodrigo Hernandez,Hillsboro,59.51,129.27,86.18,158.76,374.21,Single-ply,SBD,M
Boys,60,2,Jonathan Lopez,Hillsboro,56.15,113.4,54.43,106.59,274.42,Single-ply,SBD,M
Boys,67.5,1,Rytwann Lee,Everman,64.95,142.88,86.18,188.24,417.3,Single-ply,SBD,M
Boys,67.5,2,Edgar Aguirre,Everman,63.05,142.88,92.99,174.63,410.5,Single-ply,SBD,M
Boys,67.5,3,Osvaldo Atunez,Hillsboro,64.5,142.88,95.25,138.35,376.48,Single-ply,SBD,M
Boys,67.5,4,Kenneth Gutierrez,Everman,60.96,102.06,61.23,142.88,306.17,Single-ply,SBD,M
Boys,67.5,5,Mason Ryan,Lake Worth,61.69,102.06,63.5,127.01,292.57,Single-ply,SBD,M
Boys,67.5,6,Aaziah Flores,Everman,66.04,74.84,52.16,102.06,229.06,Single-ply,SBD,M
Boys,75,1,Juan DeLeon,Everman,73.75,170.1,102.06,204.12,476.27,Single-ply,SBD,M
Boys,75,2,Ezekial Dutton,Lake Worth,67.59,108.86,65.77,120.2,294.84,Single-ply,SBD,M
Boys,75,3,Abjose Robles,Everman,73.75,97.52,52.16,102.06,251.74,Single-ply,SBD,M
Boys,75,DQ,Emmanuel Paredes,Lake Worth,70.76,,,,,Single-ply,SBD,M
Boys,82.5,1,Brian Aguilar,Everman,79.83,226.8,108.86,226.8,562.45,Single-ply,SBD,M
Boys,82.5,2,Jessie Sambrano,Lake Worth,77.11,147.42,79.38,156.49,383.29,Single-ply,SBD,M
Boys,82.5,3,Nick Gonzalez,Hillsboro,75.3,129.27,95.25,124.74,349.27,Single-ply,SBD,M
Boys,82.5,4,Ismael Lopez,Hillsboro,81.28,113.4,90.72,102.06,306.17,Single-ply,SBD,M
Boys,90,1,Ingnacio Carmona,Hillsboro,85.82,158.76,111.13,174.63,444.52,Single-ply,SBD,M
Boys,90,2,Tony Sotero,Hillsboro,86.55,113.4,102.06,174.63,390.09,Single-ply,SBD,M
Boys,100,1,Cruz Villegas,Everman,97.7,215.46,113.4,238.14,566.99,Single-ply,SBD,M
Boys,100,2,Jason Escobedo,Lake Worth,98.88,204.12,120.2,190.51,514.83,Single-ply,SBD,M
Boys,100,3,Jaylon Sparks,Everman,93.98,185.97,131.54,195.04,512.56,Single-ply,SBD,M
Boys,100,4,Sam Salas,Everman,99.16,181.44,106.59,195.04,483.08,Single-ply,SBD,M
Boys,100,5,Edgar Guzman,Everman,93.62,102.06,90.72,149.69,342.46,Single-ply,SBD,M
Boys,100,6,Oscar Morquecho,Everman,94.08,95.25,61.23,124.74,281.23,Single-ply,SBD,M
Boys,100,DQ,Juan Nava,Everman,94.98,,,,,Single-ply,SBD,M
Boys,100,DQ,Ariel Torres,Lake Worth,91.31,,,,,Single-ply,SBD,M
Boys,110,1,Ezekiel Veal,Everman,107.05,226.8,142.88,181.44,551.11,Single-ply,SBD,M
Boys,110,2,Maylk Newsome,Everman,100.52,181.44,124.74,206.38,512.56,Single-ply,SBD,M
Boys,110,3,Daniel Hernandez,Everman,104.69,183.7,117.93,192.78,494.42,Single-ply,SBD,M
Boys,110,4,Ramiro Reyes,Hillsboro,102.78,190.51,108.86,165.56,464.93,Single-ply,SBD,M
Boys,110,5,Jeral Steward,Everman,105.78,170.1,120.2,170.1,460.4,Single-ply,SBD,M
Boys,110,6,Izaiha Olalde,Everman,105.41,102.06,83.91,149.69,335.66,Single-ply,SBD,M
Boys,110,DQ,Zach Bedford,Lake Worth,107.95,124.74,,,,Single-ply,SBD,M
Boys,125,1,Quincy Warren,Everman,115.76,226.8,158.76,272.16,657.71,Single-ply,SBD,M
Boys,125,2,Alexis Jimenez,Lake Worth,121.56,201.85,136.08,204.12,542.04,Single-ply,SBD,M
Boys,125,3,Eddie Veal,Everman,120.47,151.95,120.2,142.88,415.04,Single-ply,SBD,M
Boys,125+,1,Caleb Reed,Everman,135.81,254.01,172.37,226.8,653.17,Single-ply,SBD,M
Boys,125+,2,Josh King #1,Lake Worth,126.55,226.8,158.76,235.87,621.42,Single-ply,SBD,M
Boys,,DQ,Javier Canales,Lake Worth,,,,,,Single-ply,SBD,M
Boys,,DQ,Roland Ramirez,Hillsboro,,,,,,Single-ply,SBD,M
Boys,,DQ,Alfonso Viramontes,Melissa,,,,,,Single-ply,SBD,M
Boys,,DQ,Trevor Duggan,Melissa,,,,,,Single-ply,SBD,M
Boys,,DQ,Chris Jordan,Melissa,,,,,,Single-ply,SBD,M
Boys,,DQ,Caleb Kroese,Melissa,,,,,,Single-ply,SBD,M
Boys,,DQ,Brian Blackwell,Melissa,,,,,,Single-ply,SBD,M
Boys,,DQ,Tommy Gallardo,Melissa,,,,,,Single-ply,SBD,M
Boys,,DQ,Ryan Humphries,Melissa,,,,,,Single-ply,SBD,M
Boys,,DQ,Breelyn Armstrong,Melissa,,,,,,Single-ply,SBD,M
Boys,,DQ,Tyson Owen,Melissa,,,,,,Single-ply,SBD,M
Boys,,DQ,David Patrick,Melissa,,,,,,Single-ply,SBD,M
Boys,,DQ,Payton Wallace,Melissa,,,,,,Single-ply,SBD,M
Boys,,DQ,Omar Villegas,Melissa,,,,,,Single-ply,SBD,M
Boys,,DQ,Josh Chaires,Melissa,,,,,,Single-ply,SBD,M
Boys,,DQ,Chris Elridge,Lancaster,,,,,,Single-ply,SBD,M
Boys,,DQ,Chancey Hamilton,Lancaster,,,,,,Single-ply,SBD,M
Boys,,DQ,Jermaine Washington,Lancaster,,,,,,Single-ply,SBD,M
Boys,,DQ,Kalvin Gordon,Lancaster,,,,,,Single-ply,SBD,M
Boys,,DQ,Hamzan Hanan,Lancaster,,,,,,Single-ply,SBD,M
Boys,,DQ,Cameron Crabtree,Lancaster,,,,,,Single-ply,SBD,M
Boys,,DQ,Lattrell Cooper,Lancaster,,,,,,Single-ply,SBD,M
Boys,,DQ,Derrick Brown,Lancaster,,,,,,Single-ply,SBD,M
Boys,,DQ,Addison Bob,Lancaster,,,,,,Single-ply,SBD,M
Boys,,DQ,Reginald Thomas,Lancaster,,,,,,Single-ply,SBD,M
Boys,,DQ,Cameron Clayton,Lancaster,,,,,,Single-ply,SBD,M
