Division,WeightClassKg,Place,Name,Team,BodyweightKg,Best3SquatKg,Best3BenchKg,Best3DeadliftKg,TotalKg,Equipment,Event,Sex
Boys,52,1,Ethan Stack,Scurry-Rosser,50.89,120.2,88.45,138.35,347,Single-ply,SBD,M
Boys,52,2,Sergio Izquierdo,Fairfield,51.71,106.59,58.97,120.2,285.76,Single-ply,SBD,M
Boys,52,3,Gavin Niedich,Fairfield,49.26,102.06,52.16,90.72,244.94,Single-ply,SBD,M
Boys,52,4,Davis Young,Athens,49.26,88.45,43.09,99.79,231.33,Single-ply,SBD,M
Boys,56,1,Eric Reaper,Tyler Chapel Hill,55.52,170.1,111.13,163.29,444.52,Single-ply,SBD,M
Boys,56,2,Angel Barroso,Tyler Chapel Hill,54.52,147.42,88.45,147.42,383.29,Single-ply,SBD,M
Boys,56,3,Chandler Prnka,Malakoff,53.16,136.08,65.77,140.61,342.46,Single-ply,SBD,M
Boys,56,4,Angel Sosa,Rice,54.79,142.88,52.16,147.42,342.46,Single-ply,SBD,M
Boys,56,5,Aaron Blake,Tyler Chapel Hill,55.7,124.74,56.7,142.88,324.32,Single-ply,SBD,M
Boys,56,6,Chad Collup,Scurry-Rosser,54.34,122.47,56.7,136.08,315.25,Single-ply,SBD,M
Boys,56,7,Tye Conger,Madisonville,55.66,90.72,52.16,97.52,240.4,Single-ply,SBD,M
Boys,60,1,Seth Shipp,Rice,58.33,158.76,92.99,151.95,403.7,Single-ply,SBD,M
Boys,60,2,Desmond Walls,Madisonville,56.7,127.01,77.11,167.83,371.95,Single-ply,SBD,M
Boys,60,3,Alex Rodriguez,Fairfield,58.51,147.42,77.11,136.08,360.61,Single-ply,SBD,M
Boys,60,4,Colby Sheppard,Madisonville,57.61,122.47,72.57,151.95,347,Single-ply,SBD,M
Boys,60,5,Jonathan Boone,Madisonville,59.42,106.59,74.84,158.76,340.19,Single-ply,SBD,M
Boys,60,6,Ashton Strange,Rice,58.97,129.27,61.23,113.4,303.91,Single-ply,SBD,M
Boys,60,7,Joseph Saldivar,Groesbeck,57.42,95.25,52.16,120.2,267.62,Single-ply,SBD,M
Boys,60,DQ,Jerry Emerson,Rice,59.42,,,,,Single-ply,SBD,M
Boys,67.5,1,Jalil Mahummad,Groesbeck,61.23,163.29,104.33,172.37,439.98,Single-ply,SBD,M
Boys,67.5,2,Juan Perez,Rice,65.14,158.76,111.13,158.76,428.64,Single-ply,SBD,M
Boys,67.5,3,Timarco Cordon,Fairfield,65.41,165.56,95.25,158.76,419.57,Single-ply,SBD,M
Boys,67.5,4,Zane Anderson,Fairfield,67.13,165.56,81.65,165.56,412.77,Single-ply,SBD,M
Boys,67.5,5,Diego Gutierrez,Scurry-Rosser,61.69,147.42,86.18,156.49,390.09,Single-ply,SBD,M
Boys,67.5,6,Tristan Larsen,Tyler Chapel Hill,61.96,138.35,88.45,163.29,390.09,Single-ply,SBD,M
Boys,67.5,7,Jose Guerrero,Athens,63.5,136.08,81.65,170.1,387.82,Single-ply,SBD,M
Boys,67.5,8,Manuel Villegas,Blooming Grove,64.86,142.88,92.99,147.42,383.29,Single-ply,SBD,M
Boys,67.5,9,Nathan Chappell,Madisonville,62.87,147.42,81.65,142.88,371.95,Single-ply,SBD,M
Boys,67.5,10,Asa Surface,Madisonville,66.22,122.47,72.57,154.22,349.27,Single-ply,SBD,M
Boys,67.5,11,Connor Luke,Scurry-Rosser,66.22,117.93,56.7,124.74,299.37,Single-ply,SBD,M
Boys,67.5,DQ,Isidro Padilla,Rice,64.32,124.74,,,,Single-ply,SBD,M
Boys,75,1,Ulises Ramirez,Fairfield,74.48,197.31,102.06,192.78,492.15,Single-ply,SBD,M
Boys,75,2,Walt Mahmoud,Athens,68.67,183.7,97.52,183.7,464.93,Single-ply,SBD,M
Boys,75,3,Anthony Lopez,Athens,74.39,154.22,140.61,147.42,442.25,Single-ply,SBD,M
Boys,75,4,David Thomas,Fairfield,74.03,165.56,99.79,165.56,430.91,Single-ply,SBD,M
Boys,75,5,Jose Rodriguez,Fairfield,71.76,142.88,86.18,181.44,410.5,Single-ply,SBD,M
Boys,75,6,Michael Carter,Blooming Grove,70.13,147.42,83.91,174.63,405.97,Single-ply,SBD,M
Boys,75,7,Luke Bailey,Groesbeck,68.22,149.69,102.06,151.95,403.7,Single-ply,SBD,M
Boys,75,8,Ty Bachtel,Fairfield,73.57,147.42,90.72,154.22,392.36,Single-ply,SBD,M
Boys,75,9,Braden Raymond,Malakoff,70.31,142.88,68.04,149.69,360.61,Single-ply,SBD,M
Boys,75,10,Austin Longoria,Madisonville,73.39,133.81,74.84,147.42,356.07,Single-ply,SBD,M
Boys,75,11,Angel Limones,Fairfield,72.57,124.74,70.31,113.4,308.44,Single-ply,SBD,M
Boys,75,12,Landen Gebhart,Fairfield,72.57,92.99,61.23,136.08,290.3,Single-ply,SBD,M
Boys,75,13,Derek Smith,Scurry-Rosser,70.03,113.4,54.43,120.2,288.03,Single-ply,SBD,M
Boys,75,14,Colton Agnew,Groesbeck,69.67,90.72,63.5,113.4,267.62,Single-ply,SBD,M
Boys,75,15,Wyatt Burke,Madisonville,68.22,65.77,40.82,81.65,188.24,Single-ply,SBD,M
Boys,75,16,Richard Charlson,Fairfield,72.57,120.2,61.23,,181.44,Single-ply,SB,M
Boys,75,DQ,Ethan Snow,Malakoff,71.4,183.7,79.38,,,Single-ply,SBD,M
Boys,82.5,1,Jashaughn Hatcher,Fairfield,80.29,231.33,120.2,235.87,587.4,Single-ply,SBD,M
Boys,82.5,2,Myles McGruder,Groesbeck,81.74,215.46,133.81,233.6,582.87,Single-ply,SBD,M
Boys,82.5,3,Rustin Goff,Blooming Grove,78.11,174.63,102.06,201.85,478.54,Single-ply,SBD,M
Boys,82.5,4,Dusty Roberts,Groesbeck,81.92,190.51,97.52,190.51,478.54,Single-ply,SBD,M
Boys,82.5,5,Josh Bateman,Athens,77.75,158.76,95.25,181.44,435.45,Single-ply,SBD,M
Boys,82.5,6,Miller Smith,Fairfield,78.02,174.63,90.72,167.83,433.18,Single-ply,SBD,M
Boys,82.5,7,Garridan Henderson,Fairfield,76.2,145.15,86.18,176.9,408.23,Single-ply,SBD,M
Boys,82.5,8,Jonathan Hernandez,Malakoff,78.38,147.42,95.25,154.22,396.89,Single-ply,SBD,M
Boys,82.5,9,Tyler Crews,Malakoff,75.93,147.42,79.38,154.22,381.02,Single-ply,SBD,M
Boys,82.5,10,Wyatt Poole,Fairfield,77.11,136.08,77.11,158.76,371.95,Single-ply,SBD,M
Boys,82.5,11,Kyle Kelly,Scurry-Rosser,81.74,133.81,74.84,163.29,371.95,Single-ply,SBD,M
Boys,82.5,12,Tyler Lloyd,Groesbeck,81.1,136.08,77.11,149.69,362.87,Single-ply,SBD,M
Boys,82.5,DQ,Drew Acosta,Scurry-Rosser,80.1,165.56,,163.29,,Single-ply,SBD,M
Boys,90,1,Decorian Horton,Tyler Chapel Hill,87.54,272.16,142.88,256.28,671.32,Single-ply,SBD,M
Boys,90,2,Marquis Massenburge,Tyler Chapel Hill,89.63,222.26,136.08,233.6,591.94,Single-ply,SBD,M
Boys,90,3,Antonio Miranda,Athens,89.36,219.99,120.2,219.99,560.19,Single-ply,SBD,M
Boys,90,4,Maalik Hall,Athens,86.64,204.12,120.2,231.33,555.65,Single-ply,SBD,M
Boys,90,5,Dylan Myers,Rice,82.64,206.38,136.08,192.78,535.24,Single-ply,SBD,M
Boys,90,6,AJ Harris,Rice,89.81,208.65,106.59,204.12,519.36,Single-ply,SBD,M
Boys,90,7,Caleb Adams,Malakoff,89.18,183.7,106.59,181.44,471.74,Single-ply,SBD,M
Boys,90,8,Damon Harp,Groesbeck,87.18,172.37,97.52,167.83,437.72,Single-ply,SBD,M
Boys,90,9,Kyler Dalrymple,Malakoff,86.91,147.42,90.72,172.37,410.5,Single-ply,SBD,M
Boys,90,10,Parker Eidson,Fairfield,88.45,167.83,74.84,165.56,408.23,Single-ply,SBD,M
Boys,90,11,Richard Banks,Rice,85.73,142.88,79.38,158.76,381.02,Single-ply,SBD,M
Boys,90,DQ,Tim Swonke,Madisonville,88.81,136.08,,158.76,,Single-ply,SBD,M
Boys,100,1,Khristion Little,Tyler Chapel Hill,90.36,231.33,124.74,226.8,582.87,Single-ply,SBD,M
Boys,100,2,Daniel Briones,Rice,98.25,204.12,142.88,210.92,557.92,Single-ply,SBD,M
Boys,100,3,Shemar Willis,Athens,98.7,201.85,129.27,215.46,546.58,Single-ply,SBD,M
Boys,100,4,Donaven Dotson,Tyler Chapel Hill,93.44,215.46,115.67,213.19,544.31,Single-ply,SBD,M
Boys,100,5,Coltin Paskey,Tyler Chapel Hill,98.34,210.92,136.08,185.97,532.97,Single-ply,SBD,M
Boys,100,6,Brendan McClintock,Malakoff,93.08,181.44,88.45,181.44,451.32,Single-ply,SBD,M
Boys,100,7,Austin Prevost,Malakoff,91.44,170.1,88.45,174.63,433.18,Single-ply,SBD,M
Boys,100,8,Saul Diaz,Rice,96.62,165.56,104.33,158.76,428.64,Single-ply,SBD,M
Boys,100,9,Ethan Williams,Madisonville,95.71,147.42,95.25,181.44,424.11,Single-ply,SBD,M
Boys,100,10,Ty Wooden,Fairfield,97.52,142.88,63.5,136.08,342.46,Single-ply,SBD,M
Boys,110,1,Jacob Gomez,Fairfield,108.41,294.84,204.12,233.6,732.55,Single-ply,SBD,M
Boys,110,2,Hunter Tucker,Tyler Chapel Hill,106.41,242.67,124.74,238.14,605.55,Single-ply,SBD,M
Boys,110,3,LaDarius Price,Fairfield,108.86,217.72,136.08,217.72,571.53,Single-ply,SBD,M
Boys,110,4,Clayton Herridge,Groesbeck,109.04,188.24,145.15,176.9,510.29,Single-ply,SBD,M
Boys,110,5,Ryan Hardin,Groesbeck,105.69,190.51,108.86,195.04,494.42,Single-ply,SBD,M
Boys,110,6,Zane Gifford,Rice,106.68,183.7,111.13,165.56,460.4,Single-ply,SBD,M
Boys,110,DQ,Tucker Davis,Fairfield,104.33,,142.88,,,Single-ply,SBD,M
Boys,125,1,Aaron Pfleeger,Fairfield,113.85,272.16,142.88,238.14,653.17,Single-ply,SBD,M
Boys,125,2,Jose Arreguin,Tyler Chapel Hill,120.56,244.94,151.95,204.12,601.01,Single-ply,SBD,M
Boys,125,3,Bryce Stavinoha,Scurry-Rosser,122.56,181.44,145.15,183.7,510.29,Single-ply,SBD,M
Boys,125,4,Christ Palmer,Scurry-Rosser,117.39,197.31,115.67,176.9,489.88,Single-ply,SBD,M
Boys,125,5,Andres Ulloa-Cedillo,Rice,120.75,172.37,122.47,183.7,478.54,Single-ply,SBD,M
Boys,125,6,Lincoln Rogers,Malakoff,111.77,181.44,115.67,176.9,474,Single-ply,SBD,M
Boys,125,7,Richard Worthington,Scurry-Rosser,111.49,163.29,88.45,174.63,426.38,Single-ply,SBD,M
Boys,125,DQ,Chris Barco,Groesbeck,119.48,226.8,,204.12,,Single-ply,SBD,M
Boys,125+,1,Dalton Hatcher,Scurry-Rosser,172.46,233.6,167.83,206.38,607.81,Single-ply,SBD,M
Boys,125+,2,Coby Wilbanks,Malakoff,147.78,267.62,136.08,192.78,596.47,Single-ply,SBD,M
Boys,125+,3,Garrett Hayes,Athens,126.37,233.6,124.74,226.8,585.13,Single-ply,SBD,M
Boys,125+,4,Joey McIver,Madisonville,132.09,215.46,136.08,192.78,544.31,Single-ply,SBD,M
Boys,,DQ,David Dilbeck,Blooming Grove,,,,,,Single-ply,SBD,M
