Place,Name,Division,BirthYear,BodyweightKg,Bench1Kg,Bench2Kg,Bench3Kg,Best3BenchKg,WeightClassKg,Sex,Equipment,Event,TotalKg
1,S. Usembaev,Teen,2003,31.1,37.5,40,42.5,42.5,32,M,Single-ply,B,42.5
2,Kabdylgazizov,Teen,2005,31.6,25,30,32.5,32.5,32,M,Single-ply,B,32.5
3,N. Nugumanov,Teen,2004,32,25,32.5,-35,32.5,32,M,Single-ply,B,32.5
1,E. Orynbasar,Teen,2003,35.1,45,-51,-51,45,36,M,Single-ply,B,45
2,N. Urakbaev,Teen,2003,34.6,37.5,-40,40,40,36,M,Single-ply,B,40
3,E. Nurtaev,Teen,2006,36,25,30,32.5,32.5,36,M,Single-ply,B,32.5
1,A. Artur,Teen,2002,39.3,45,-52.5,52.5,52.5,40,M,Single-ply,B,52.5
2,Primbetov,Teen,2005,36.7,25,-30,-30,25,40,M,Single-ply,B,25
3,A. Saipov,Teen,2001,39.5,20,25,-30,25,40,M,Single-ply,B,25
1,M. Sadykov,Teen,2002,43.4,50,55,-62.5,55,44,M,Single-ply,B,55
2,D. Marat,Teen,2000,42.9,50,-60,-60,50,44,M,Single-ply,B,50
3,E. Makeev,Teen,2002,43.8,40,45,-47.5,45,44,M,Single-ply,B,45
4,E. Magauin,Teen,2005,43.5,35,40,-45,40,44,M,Single-ply,B,40
1,Sh. Kuraev,Teen,2001,48,80,-87.5,90,90,48,M,Single-ply,B,90
2,Ivan Kuvaldin,Teen,2001,46.9,80,87.5,-90,87.5,48,M,Single-ply,B,87.5
3,I. Kanashov,Teen,2002,47.9,75,80,-82.5,80,48,M,Single-ply,B,80
4,A. Orynbasarov,Teen,2001,47,75,-80,-80,75,48,M,Single-ply,B,75
5,N. Bolat,Teen,2000,46.9,60,65,-70,65,48,M,Single-ply,B,65
1,Sh. Elzhanov,Teen,2001,48.3,100,-107.5,-107.5,100,53,M,Single-ply,B,100
2,N. Kaverin,Teen,2000,52.9,60,-72.5,72.5,72.5,53,M,Single-ply,B,72.5
3,M. Sultanov,Teen,2001,51.8,50,60,-72.5,60,53,M,Single-ply,B,60
DQ,A. Aytmanov,Teen,1999,52.1,-100,-100,-100,,53,M,Single-ply,B,
1,Shyngys Kuatbaev,Juniors,1998,52.4,115,-122.5,122.5,122.5,53,M,Single-ply,B,122.5
2,Furkat Shamuratov,Juniors,1996,52.7,110,-117.5,117.5,117.5,53,M,Single-ply,B,117.5
3,A. Aytzhanov,Juniors,1998,52,70,,,70,53,M,Single-ply,B,70
1,Sergey Shishkin,Teen,1999,58.5,125,135,-145,135,59,M,Single-ply,B,135
2,Sh. Yuldashev,Teen,2000,58.7,85,95,-100,95,59,M,Single-ply,B,95
3,N. Marat,Teen,2001,53.5,55,60,-65,60,59,M,Single-ply,B,60
1,Farkhad Kanalbekov,Juniors,1996,59,150,157.5,-162.5,157.5,59,M,Single-ply,B,157.5
2,Zh. Kalzhanov,Juniors,1998,57.5,115,125,-135,125,59,M,Single-ply,B,125
3,D. Orunbaev,Juniors,1996,58.3,105,110,115,115,59,M,Single-ply,B,115
4,N. Serikzhanov,Juniors,1998,56.7,95,-105,-105,95,59,M,Single-ply,B,95
1,M. Gorlov,Open,1989,58.7,130,-140,-140,130,59,M,Single-ply,B,130
2,R. Katykhov,Open,1999,58.7,90,97.5,100,100,59,M,Single-ply,B,100
3,Z. Mukhamedaliev,Open,2001,58.9,60,65,70,70,59,M,Single-ply,B,70
4,V. Plakhotnikov,Open,2003,59,50,60,70,70,59,M,Single-ply,B,70
5,Zhaslan Donanov,Open,1992,58,50,60,-70,60,59,M,Single-ply,B,60
1,S. Abdykhalykov,Teen,2000,66,100,107.5,115,115,66,M,Single-ply,B,115
2,A. Dzhasbaev,Teen,2001,61.4,75,82.5,-107.5,82.5,66,M,Single-ply,B,82.5
3,A. Akniyaz,Teen,2001,59.5,50,55,-60,55,66,M,Single-ply,B,55
1,S. Grossu,Juniors,1997,66,150,160,-170,160,66,M,Single-ply,B,160
2,Madiyar Nurzhanov,Juniors,1994,64.1,100,120,-127.5,120,66,M,Single-ply,B,120
3,Sh. Irisdavletov,Juniors,1998,64.2,120,-125,-125,120,66,M,Single-ply,B,120
1,Zh. Yuldashev,Open,1999,64,110,120,-130,120,66,M,Single-ply,B,120
2,A. Kraskov,Open,1982,64.7,-120,-120,120,120,66,M,Single-ply,B,120
3,Sh. Yuldashev,Open,2000,65.3,100,-110,-110,100,66,M,Single-ply,B,100
4,Vladislav Morozov,Open,2001,65.8,100,-125,-125,100,66,M,Single-ply,B,100
1,O. Pekushev,Masters 1,1977,65.5,-130,130,-135,130,66,M,Single-ply,B,130
1,Kozhakhmet Zhaltaev,Teen,2000,73,170,177.5,-190,177.5,74,M,Single-ply,B,177.5
2,Ayubkhan Absattarov,Teen,2000,74,165,175,-182.5,175,74,M,Single-ply,B,175
3,Timur Temirshikov,Teen,2001,74,105,115,-122.5,115,74,M,Single-ply,B,115
4,U. Bayniyazov,Teen,2000,70.2,70,75,-80,75,74,M,Single-ply,B,75
1,A. Kim,Juniors,1996,72.2,190,-200,200,200,74,M,Single-ply,B,200
2,D. Makhambetov,Juniors,1995,73.2,150,-157.5,-157.5,150,74,M,Single-ply,B,150
3,Talgat Aytkazin,Juniors,1997,73,125,135,142.5,142.5,74,M,Single-ply,B,142.5
1,B. Bekmurzaev,Open,1988,73.3,-210,210,-225,210,74,M,Single-ply,B,210
2,K. Syrbalaev,Open,1983,73.8,170,177.5,195,195,74,M,Single-ply,B,195
3,Andrei Dorokhov,Open,1992,73,-185,-185,187.5,187.5,74,M,Single-ply,B,187.5
4,Dmitriy Kan,Open,1993,73.1,180,185,-187.5,185,74,M,Single-ply,B,185
5,Yevgeniy Kim,Open,1984,73.9,175,182.5,-190,182.5,74,M,Single-ply,B,182.5
6,Eldos Yermakhanov,Open,1990,69.5,160,167.5,172.5,172.5,74,M,Single-ply,B,172.5
7,Vadim Filimonenko,Open,1974,73,150,160,170,170,74,M,Single-ply,B,170
8,T. Kasymov,Open,1990,73.6,140,150,155,155,74,M,Single-ply,B,155
9,Kuanyshbay Tulegenov,Open,1998,67.4,140,150,-160,150,74,M,Single-ply,B,150
10,M. Zhgun,Open,1981,73.5,140,-150,-150,140,74,M,Single-ply,B,140
1,S. Oboychuk,Teen,1999,80.9,120,130,132.5,132.5,83,M,Single-ply,B,132.5
2,N. Shakirov,Teen,2000,81.7,115,120,130,130,83,M,Single-ply,B,130
3,K. Tulepbergenov,Teen,2000,82.3,110,120,-132.5,120,83,M,Single-ply,B,120
DQ,Islam Irasaliev,Teen,1999,76.7,-122.5,-122.5,-122.5,,83,M,Single-ply,B,
DQ,G. Bekniyazov,Teen,2002,74.5,-110,-110,-110,,83,M,Single-ply,B,
1,Abzal Begaidarov,Juniors,1995,82.1,185,190,195,195,83,M,Single-ply,B,195
2,Gafurzhan Abdurakhmanov,Juniors,1998,82,175,185,-195,185,83,M,Single-ply,B,185
3,S. Yudchenko,Juniors,1996,81.4,162.5,167.5,172.5,172.5,83,M,Single-ply,B,172.5
1,Vyacheslav Tsoy,Open,1984,82.7,220,230,-240,230,83,M,Single-ply,B,230
2,E. Aytmanov,Open,1979,82.8,-205,-205,212.5,212.5,83,M,Single-ply,B,212.5
3,A. Semenin,Open,1985,82.8,200,210,-220,210,83,M,Single-ply,B,210
4,N. Salamatov,Open,1986,82.5,-200,200,-210,200,83,M,Single-ply,B,200
5,Bakytbek Turetaev,Open,1996,78.2,160,170,180,180,83,M,Single-ply,B,180
6,E. Musinov,Open,1994,81.7,150,160,175,175,83,M,Single-ply,B,175
7,R. Nazarkulov,Open,1993,77.4,-145,-145,145,145,83,M,Single-ply,B,145
8,K. Lisnichenko,Open,2001,74.8,130,140,-145,140,83,M,Single-ply,B,140
DQ,Zh. Shaukatov,Open,1998,80,-230,-230,-230,,83,M,Single-ply,B,
1,Viktor Dak,Masters 1,1975,82.2,-180,180,-195,180,83,M,Single-ply,B,180
2,A. Moskalev,Masters 1,1971,80,105,115,120,120,83,M,Single-ply,B,120
1,Serikkazi Azilkhanov,Masters 2,1963,79.3,140,-150,-150,140,83,M,Single-ply,B,140
2,Vladimir Shkirman,Masters 2,1964,80.1,120,130,-142.5,130,83,M,Single-ply,B,130
3,T. Tadzhiev,Masters 2,1964,82.1,110,120,130,130,83,M,Single-ply,B,130
1,R. Malimonov,Masters 4,1941,74.01,70,77.5,80,80,83,M,Single-ply,B,80
1,R. Valiullin,Teen,2000,90.5,145,150,-160,150,93,M,Single-ply,B,150
2,A. Tanat,Teen,2001,91.3,140,-150,-150,140,93,M,Single-ply,B,140
3,Azizbek Amanov,Teen,2001,86.8,95,105,-122.5,105,93,M,Single-ply,B,105
1,Roman Yurchenko,Juniors,1994,92.5,-202.5,-202.5,202.5,202.5,93,M,Single-ply,B,202.5
2,Z. Askarov,Juniors,1996,90.6,190,195,-202.5,195,93,M,Single-ply,B,195
3,A. Alibekov,Juniors,1994,92.1,140,-150,-155,140,93,M,Single-ply,B,140
DQ,A. Tursunov,Juniors,1996,93,-205,-205,-205,,93,M,Single-ply,B,
1,Igor Trifonov,Open,1989,92.4,240,250,-260,250,93,M,Single-ply,B,250
2,K. Kozybaev,Open,1993,93,220,-230,-232.5,220,93,M,Single-ply,B,220
3,G. Kairbaev,Open,1987,93,190,-210,-222.5,190,93,M,Single-ply,B,190
4,S. Nezherya,Open,1998,83.4,160,170,-180,170,93,M,Single-ply,B,170
5,A. Peran,Open,1985,92.1,150,160,165,165,93,M,Single-ply,B,165
6,Gennadiy Melnik,Open,1967,92,140,150,160,160,93,M,Single-ply,B,160
7,Viktor Timorskiy,Open,1996,92,135,145,152.5,152.5,93,M,Single-ply,B,152.5
DQ,Ruslan Sadykov,Open,1986,92.9,-250,-250,-250,,93,M,Single-ply,B,
DQ,R. Safin,Open,1983,92.9,-200,-200,-210,,93,M,Single-ply,B,
DQ,Roman Yakovlev,Open,1989,92.1,-200,-200,-200,,93,M,Single-ply,B,
1,Denis Bondik,Masters 1,1974,90.9,-195,195,,195,93,M,Single-ply,B,195
2,V. Barabanschikov,Masters 1,1970,91.1,100,110,115,115,93,M,Single-ply,B,115
1,Valeriy Vorobyev,Masters 3,1953,90.2,150,-155,-155,150,93,M,Single-ply,B,150
1,S. Korneev,Teen,1999,95,130,135,142.5,142.5,105,M,Single-ply,B,142.5
2,P. Khadimatov,Teen,1999,93.7,120,130,-140,130,105,M,Single-ply,B,130
3,A. Shakizadaev,Teen,2001,94.3,-100,100,120,120,105,M,Single-ply,B,120
1,M. Ondagan,Juniors,1995,104.1,220,235,-250,235,105,M,Single-ply,B,235
2,A. Samarin,Juniors,1996,99.7,160,165,175,175,105,M,Single-ply,B,175
3,Temur Irismetov,Juniors,1998,93.2,160,167.5,172.5,172.5,105,M,Single-ply,B,172.5
1,Sergei Vaigant,Open,1989,104,300,310,-323,310,105,M,Single-ply,B,310
2,S. Salavatov,Open,1980,99,210,220,-225,220,105,M,Single-ply,B,220
3,F. Almikulov,Open,1981,93.2,190,200,-210,200,105,M,Single-ply,B,200
4,A. Yakovlev,Open,1990,94.6,160,170,180,180,105,M,Single-ply,B,180
5,V. Shulyakov,Open,1967,103,150,160,170,170,105,M,Single-ply,B,170
6,E. Likhachev,Open,1993,101,145,-155,165,165,105,M,Single-ply,B,165
DQ,E. Sultankul,Open,1982,102.2,-195,-195,-195,,105,M,Single-ply,B,
1,E. Epifanov,Masters 1,1975,105,170,180,-195,180,105,M,Single-ply,B,180
2,A. Korinnyy,Masters 1,1973,104.1,150,160,-170,160,105,M,Single-ply,B,160
3,V. Bezrukov,Masters 1,1971,104.1,135,140,-142.5,140,105,M,Single-ply,B,140
1,M. Bakirov,Masters 1,1976,96.7,-90,90,-110,90,105,M,Single-ply,B,90
1,V. Shpichak,Masters 3,1949,93.05,90,100,110,110,105,M,Single-ply,B,110
1,V. Ryaguzov,Masters 4,1947,97.5,87.5,90,-92.5,90,105,M,Single-ply,B,90
1,Zh. Akhmetov,Teen,1998,107.2,85,95,105,105,120,M,Single-ply,B,105
2,A. Altaybaev,Teen,2003,105.2,55,60,62.5,62.5,120,M,Single-ply,B,62.5
3,N. Gonchar,Teen,2002,105.1,50,60,-70,60,120,M,Single-ply,B,60
1,B. Kholodov,Juniors,1996,115.3,100,105,110,110,120,M,Single-ply,B,110
2,F. Tryakin,Juniors,1995,108.1,90,95,97.5,97.5,120,M,Single-ply,B,97.5
3,S. Berdygozhin,Juniors,1997,106.1,80,85,95,95,120,M,Single-ply,B,95
1,D. Chernay,Open,1987,110.1,-240,-245,245,245,120,M,Single-ply,B,245
2,Roman Pischaev,Open,1989,110.7,235,242.5,-247.5,242.5,120,M,Single-ply,B,242.5
3,R. Mukhamadiev,Open,1987,110,220,230,-240,230,120,M,Single-ply,B,230
4,Sh. Saitov,Open,1984,111.5,180,190,200,200,120,M,Single-ply,B,200
DQ,V. Leonov,Open,1991,115,-225,-225,-225,,120,M,Single-ply,B,
1,A. Shustov,Masters 1,1973,110.9,135,140,145,145,120,M,Single-ply,B,145
1,S. Danilchenko,Masters 2,1966,111.1,170,180,185,185,120,M,Single-ply,B,185
DQ,Serik Tukushev,Masters 2,1967,110.8,-220,-240,-240,,120,M,Single-ply,B,
1,Zh. Akataev,Masters 3,1953,111.2,105,115,-120,115,120,M,Single-ply,B,115
1,Sh. Baykadamov,Teen,2000,124.3,100,105,107.5,107.5,120+,M,Single-ply,B,107.5
2,S. Lomakin,Teen,2001,121.3,90,-95,95,95,120+,M,Single-ply,B,95
3,A. Minnemullin,Teen,2000,120.5,80,85,-95,85,120+,M,Single-ply,B,85
1,Alfarabi Sunkar,Juniors,1994,129.4,160,170,-175,170,120+,M,Single-ply,B,170
2,A. Shramko,Juniors,1995,126.2,120,130,135,135,120+,M,Single-ply,B,135
3,A. Saprykin,Juniors,1997,130.2,100,110,120,120,120+,M,Single-ply,B,120
1,Andrei Altaybaev,Open,1972,121,260,270,281,281,120+,M,Single-ply,B,281
2,Yu. Banchukov,Open,1988,136.6,270,-280,280,280,120+,M,Single-ply,B,280
3,A. Minkin,Open,1996,128,160,170,-180,170,120+,M,Single-ply,B,170
4,E. Evdokimov,Open,1980,123,150,160,-170,160,120+,M,Single-ply,B,160
1,Vladimir Babichev,Masters 3,1949,127.1,105,115,122.5,122.5,120+,M,Single-ply,B,122.5
1,A. Sultanova,Teen,2004,31.2,20,25,-27.5,25,32,F,Single-ply,B,25
2,E. Shinkorenko,Teen,2005,31.9,20,22.5,-25,22.5,32,F,Single-ply,B,22.5
3,B. Shakirova,Teen,2004,30.2,20,-25,-25,20,32,F,Single-ply,B,20
1,U. Sagidulaakyzy,Teen,2004,34.9,20,25,27.5,27.5,36,F,Single-ply,B,27.5
2,L. Sukhonosenko,Teen,2004,35.6,20,25,-27.5,25,36,F,Single-ply,B,25
3,T. Abdulmanova,Teen,2005,35.1,-20,20,22.5,22.5,36,F,Single-ply,B,22.5
1,I. Stulova,Teen,2004,39.2,40,45,47.5,47.5,40,F,Single-ply,B,47.5
2,N. Zlochevskaya,Teen,2002,39.8,40,45,-47.5,45,40,F,Single-ply,B,45
3,K. Zhunusova,Teen,2000,38.6,30,35,40,40,40,F,Single-ply,B,40
1,K. Popova,Teen,1999,42.6,52.5,57.5,62.5,62.5,43,F,Single-ply,B,62.5
2,G. Zhumabay,Teen,1999,42.6,45,47.5,-52.5,47.5,43,F,Single-ply,B,47.5
3,M. Kaynushova,Teen,2003,40.5,30,35,-37.5,35,43,F,Single-ply,B,35
4,L. Samoylova,Teen,2002,42.1,30,-35,-35,30,43,F,Single-ply,B,30
5,Z. Dosymkhanova,Teen,2003,41.6,25,-30,-30,25,43,F,Single-ply,B,25
1,V. Kromm,Juniors,1998,42.1,50,55,57.5,57.5,43,F,Single-ply,B,57.5
2,N. Redyuk,Juniors,1997,40.5,40,45,50,50,43,F,Single-ply,B,50
3,L. Lyamzina,Juniors,1998,41.9,35,37.5,-45,37.5,43,F,Single-ply,B,37.5
1,Aliya Kishkimbaeva,Teen,2000,47,65,70,72.5,72.5,47,F,Single-ply,B,72.5
2,D. Sersimbaeva,Teen,2001,46.2,50,-57.5,60,60,47,F,Single-ply,B,60
3,A. Bazyuk,Teen,2004,44.6,40,45,-50,45,47,F,Single-ply,B,45
1,G. Bengardt,Juniors,1998,46.3,65,-70,75,75,47,F,Single-ply,B,75
2,M. Kadyrbekova,Juniors,1996,45.6,45,50,55,55,47,F,Single-ply,B,55
3,G. Sarsembenova,Juniors,1996,45,40,45,-47.5,45,47,F,Single-ply,B,45
1,Asiya Orazbekova,Open,1987,46.5,80,87.5,-90,87.5,47,F,Single-ply,B,87.5
2,A. Butenko,Open,2003,47,45,50,52.5,52.5,47,F,Single-ply,B,52.5
3,Yu. Buylova,Open,1989,46.3,40,45,50,50,47,F,Single-ply,B,50
4,G. Zhumabekova,Open,1984,45.2,40,-45,-47.5,40,47,F,Single-ply,B,40
DQ,A. Lazareva,Open,1990,47,-60,-60,-60,,47,F,Single-ply,B,
1,Saniya Omarkhanova,Teen,1999,50.4,60,65,70,70,52,F,Single-ply,B,70
2,S. Loskutova,Teen,1999,50.9,-45,50,55,55,52,F,Single-ply,B,55
3,Z. Kitaeva,Teen,2001,51.3,50,55,-57.5,55,52,F,Single-ply,B,55
4,M. Sakenova,Teen,1999,49.6,30,35,45,45,52,F,Single-ply,B,45
5,A. Beysebaeva,Teen,2003,50.8,30,35,40,40,52,F,Single-ply,B,40
1,L. Kudaykulova,Juniors,1998,51.9,40,45,-47.5,45,52,F,Single-ply,B,45
2,K. Tukhfatullina,Juniors,1996,51.9,30,35,40,40,52,F,Single-ply,B,40
3,Sh. Kasenova,Juniors,1998,50.1,30,32.5,-35,32.5,52,F,Single-ply,B,32.5
1,E. Matsokina,Open,1990,52,45,55,-62.5,55,52,F,Single-ply,B,55
2,S. Aladyeva,Open,2000,50.8,-22.5,22.5,-25,22.5,52,F,Single-ply,B,22.5
3,S. Zhansarinova,Open,1991,51.4,20,-25,-25,20,52,F,Single-ply,B,20
1,A. Zyryanova,Teen,2001,55.2,30,-35,37.5,37.5,57,F,Single-ply,B,37.5
2,T. Karpeychik,Teen,2000,56.3,30,35,-37.5,35,57,F,Single-ply,B,35
3,T. Beysengulova,Teen,2004,55.9,20,-27.5,27.5,27.5,57,F,Single-ply,B,27.5
1,K. Varschuk,Juniors,1998,56.7,-60,70,-75,70,57,F,Single-ply,B,70
2,I. Gerus,Juniors,1996,55.3,50,-55,57.5,57.5,57,F,Single-ply,B,57.5
3,T. Voronina,Juniors,1998,56.8,40,-47.5,50,50,57,F,Single-ply,B,50
1,A. Gladkova,Open,2001,56.6,60,-62.5,65,65,57,F,Single-ply,B,65
2,L. Kazinkina,Open,1999,52.8,60,-70,-70,60,57,F,Single-ply,B,60
3,N. Latysheva,Open,1991,55.6,45,-50,-55,45,57,F,Single-ply,B,45
4,M. Antonenko,Open,1986,55.1,35,40,-45,40,57,F,Single-ply,B,40
1,Anastasiya Zhurbina,Teen,1999,61.2,80,90,-95,90,63,F,Single-ply,B,90
2,Zh. Orazali,Teen,1999,62,55,62.5,70,70,63,F,Single-ply,B,70
3,R. Serdyuk,Teen,2001,61.9,40,45,55,55,63,F,Single-ply,B,55
4,G. Samuratova,Teen,2003,62.9,40,45,50,50,63,F,Single-ply,B,50
5,M. Rychkova,Teen,2001,60.6,30,35,40,40,63,F,Single-ply,B,40
1,Z. Shinbolotova,Juniors,1997,57.6,65,70,75,75,63,F,Single-ply,B,75
2,Gulzhayna Zhalil,Juniors,1996,58.2,65,70,-77.5,70,63,F,Single-ply,B,70
3,T. Gorbatenko,Juniors,1996,60.2,50,-55,57.5,57.5,63,F,Single-ply,B,57.5
1,Alena Rtischeva,Open,1987,62.3,105,110,112.5,112.5,63,F,Single-ply,B,112.5
2,I. Sogrina,Open,1991,63,65,-75,75,75,63,F,Single-ply,B,75
3,T. Khutorova,Open,1989,60.8,50,57.5,-60,57.5,63,F,Single-ply,B,57.5
1,Asel Nurkenova,Teen,2000,66,70,80,,80,72,F,Single-ply,B,80
2,V. Romanovskaya,Teen,2000,71.6,35,40,-42.5,40,72,F,Single-ply,B,40
3,G. Shishkina,Teen,2002,67.6,30,35,-37.5,35,72,F,Single-ply,B,35
4,V. Sergienko,Teen,2000,63.9,25,30,-35,30,72,F,Single-ply,B,30
1,Tomiris Kornienko,Juniors,1998,71.1,80,85,87.5,87.5,72,F,Single-ply,B,87.5
2,S. Kokotyukha,Juniors,1996,65.3,65,70,75,75,72,F,Single-ply,B,75
3,A. Fitkalova,Juniors,1997,66.2,65,70,-77.5,70,72,F,Single-ply,B,70
1,Yekaterina Kryukova,Open,1985,71.9,107.5,112.5,-115,112.5,72,F,Single-ply,B,112.5
2,G. Uldarinova,Open,1993,71.6,40,-70,-70,40,72,F,Single-ply,B,40
3,E. Andreeva,Open,1999,65.3,35,-40,-40,35,72,F,Single-ply,B,35
1,E. Skvortsova,Teen,2001,74.1,60,-65,-67.5,60,84,F,Single-ply,B,60
2,T. Stepanova,Teen,2001,75.6,-50,55,60,60,84,F,Single-ply,B,60
3,K. Iratova,Teen,2000,80.6,40,-45,50,50,84,F,Single-ply,B,50
1,K. Zhumakhanova,Juniors,1997,80.2,75,-80,-80,75,84,F,Single-ply,B,75
2,M. Serikbaeva,Juniors,1996,76.3,50,55,60,60,84,F,Single-ply,B,60
3,S. Mushkirova,Juniors,1997,78.6,40,45,47.5,47.5,84,F,Single-ply,B,47.5
1,L. Milovanova,Open,1985,72.6,70,-80,-80,70,84,F,Single-ply,B,70
2,E. Shlupikova,Open,2002,76.8,60,70,-80,70,84,F,Single-ply,B,70
3,D. Zanozdrya,Open,1999,72.5,50,60,65,65,84,F,Single-ply,B,65
4,K. Baymamyrova,Open,1983,80.6,50,55,60,60,84,F,Single-ply,B,60
1,Marina Altaybayeva,Masters 1,1973,83.8,37.5,42.5,45,45,84,F,Single-ply,B,45
1,Regina Meier,Teen,1999,93.7,75,85,90,90,84+,F,Single-ply,B,90
2,K. Efimova,Teen,2000,86.3,50,55,57.5,57.5,84+,F,Single-ply,B,57.5
3,V. Matvienko,Teen,2002,87.6,50,55,-57.5,55,84+,F,Single-ply,B,55
4,L. Ivakina,Teen,2002,84.9,40,45,-50,45,84+,F,Single-ply,B,45
5,L. Rusaleeva,Teen,1999,90.3,30,-35,40,40,84+,F,Single-ply,B,40
1,V. Esko,Juniors,1996,90.1,75,85,95,95,84+,F,Single-ply,B,95
2,M. Ospanova,Juniors,1997,86.1,75,80,85,85,84+,F,Single-ply,B,85
3,G. Shugurova,Juniors,1996,85.9,55,60,62.5,62.5,84+,F,Single-ply,B,62.5
1,Aziza Abduraimova,Open,1989,89.5,125,130,,130,84+,F,Single-ply,B,130
2,D. Malykhina,Open,2003,94.1,70,-80,-80,70,84+,F,Single-ply,B,70
3,R. Ismailova,Open,1992,84.8,50,-55,-60,50,84+,F,Single-ply,B,50
4,A. Kurasova,Open,1984,87.5,45,-50,-50,45,84+,F,Single-ply,B,45
5,A. Stepashko,Open,1990,95.4,30,35,37.5,37.5,84+,F,Single-ply,B,37.5
1,N. Kislitsina,Masters 1,1976,85.9,-90,90,100,100,84+,F,Single-ply,B,100
